<?xml version="1.0" encoding="UTF-8"?>
<CustomTab xmlns="http://soap.sforce.com/2006/04/metadata">
    <description>Created by Lightning App Builder</description>
    <flexiPage>My_Glidepath</flexiPage>
    <label>My Glidepath</label>
    <mobileReady>true</mobileReady>
    <motif>Custom52: Balls</motif>
</CustomTab>
